<svg xmlns="http://www.w3.org/2000/svg" viewBox="0 0 25.65 25.65">
  <title>Asset 11</title>
  <g id="Layer_2" data-name="Layer 2">
    <g id="Layer_1-2" data-name="Layer 1">
      <path d="M10.27,4.8c-1.4,3-4,5-6.39,5-5.59,0-5,3.59.8,5.19a7.68,7.68,0,0,1,6,6c1.6,5.78,5.19,6.38,5.19.79,0-2.39,2-5,5-6.38,6.19-2.8,6.39-5.19.6-6A5.59,5.59,0,0,1,16.26,4.2C15.46-1.59,13.07-1.39,10.27,4.8Zm6.59,8.78a8.35,8.35,0,0,0-3,2.2c-.59.79-2.19.39-3.59-1.2s-1.6-2.8-.4-2.8c1,0,2-1.39,2-3,0-2.4.6-2.4,3.59.4C17.46,11.38,18.06,13.18,16.86,13.58Z"/>
    </g>
  </g>
</svg>
